__________ ________   ________   ____  __.   __________________________________   ____.____________ ___________
\______   \\_____  \  \_____  \ |    |/ _|  /   _____/\_   _____/\______   \   \ /   /|   \_   ___ \\_   _____/
 |    |  _/ /   |   \  /   |   \|      <    \_____  \  |    __)_  |       _/\   Y   / |   /    \  \/ |    __)_
 |    |   \/    |    \/    |    \    |  \   /        \ |        \ |    |   \ \     /  |   \     \____|        \
 |______  /\_______  /\_______  /____|__ \ /_______  //_______  / |____|_  /  \___/   |___|\______  /_______  /
        \/         \/         \/        \/         \/         \/         \/                       \/        \/